{
  "routes": {
    "GET /fee_configuration": {
      "controller": "Fee_configuration",
      "action": "find",
      "policies": [
        "isAuthorized"
      ]
    },
    "GET /fee_configuration/:id": {
      "controller": "Fee_configuration",
      "action": "findOne",
      "policies": [
        "isAuthorized"
      ]
    },
    "POST /fee_configuration": {
      "controller": "Fee_configuration",
      "action": "create",
      "policies": [
        "isAuthorized",
        "addDataCreate"
      ]
    },
    "PUT /fee_configuration/:id": {
      "controller": "Fee_configuration",
      "action": "update",
      "policies": [
        "isAuthorized",
        "addDataUpdate"
      ]
    },
    "DELETE /fee_configuration/:id": {
      "controller": "Fee_configuration",
      "action": "destroy",
      "policies": [
        "isAuthorized"
      ]
    },
    "POST /fee_configuration/:parentId/:relation": {
      "controller": "Fee_configuration",
      "action": "add",
      "policies": [
        "isAuthorized",
        "addDataCreate"
      ]
    },
    "DELETE /fee_configuration/:parentId/:relation/:id": {
      "controller": "Fee_configuration",
      "action": "remove",
      "policies": [
        "isAuthorized",
        "addDataUpdate"
      ]
    }
  }
}
