{
  "routes": {
    
    "GET /tutors": {
      "controller": "Tutor_teaching_subject",
      "action": "findCustom",
      "policies": [
        "isAuthorized"
      ]
    },
    "GET /tutors/:id": {
      "controller": "Tutor_teaching_subject",
      "action": "findOneCustom",
      "policies": [
        "isAuthorized"
      ]
    },
    "GET /tutor_teaching_subject": {
      "controller": "Tutor_teaching_subject",
      "action": "find",
      "policies": [
        "isAuthorized"
      ]
    },
    "GET /tutor_teaching_subject/:id": {
      "controller": "Tutor_teaching_subject",
      "action": "findOne",
      "policies": [
        "isAuthorized"
      ]
    },
    "POST /tutor_teaching_subject": {
      "controller": "Tutor_teaching_subject",
      "action": "create",
      "policies": [
        "isAuthorized",
        "addDataCreate"
      ]
    },
    "PUT /tutor_teaching_subject/:id": {
      "controller": "Tutor_teaching_subject",
      "action": "update",
      "policies": [
        "isAuthorized",
        "addDataUpdate"
      ]
    },
    "DELETE /tutor_teaching_subject/:id": {
      "controller": "Tutor_teaching_subject",
      "action": "destroy",
      "policies": [
        "isAuthorized"
      ]
    },
    "POST /tutor_teaching_subject/:parentId/:relation": {
      "controller": "Tutor_teaching_subject",
      "action": "add",
      "policies": [
        "isAuthorized",
        "addDataCreate"
      ]
    },
    "DELETE /tutor_teaching_subject/:parentId/:relation/:id": {
      "controller": "Tutor_teaching_subject",
      "action": "remove",
      "policies": [
        "isAuthorized",
        "addDataUpdate"
      ]
    }
  }
}
