{
  "identity": "chat",
  "connection": "",
  "displayedAttribute": "",
  "schema": true,
  "attributes": {
    "tuition_activity_session": {
      "model": "tuition_activity_session" 
    },
    "from": {
      "collection": "user"
    },
    "to": {
      "collection": "user"
    },
    "datetime": {
      "type": "datetime"
    },
    "message": {
      "type": "string"
    },
    "createdBy": {
      "model": "user"
    },
    "updatedBy": {
      "model": "user"
    },
    "contributors": {
      "collection": "user",
      "via": "chats"
    }
  },
  "autoCreatedAt": true,
  "autoUpdatedAt": true
}
