{
  "identity": "course",
  "connection": "",
  "displayedAttribute": "",
  "schema": true,
  "attributes": {
    "course_name": {
      "type": "string"
    },
    "code": {
      "type": "string"
    },
    "note": {
      "type": "string"
    },
    "createdBy": {
      "model": "user"
    },
    "updatedBy": {
      "model": "user"
    },
    "contributors": {
      "collection": "user",
      "via": "courses"
    },
    "academic_setup_new": {
      "collection": "academic_setup_new",
      "via": "course"
    }
  },
  "autoCreatedAt": true,
  "autoUpdatedAt": true
}
