{
  "identity": "tuition_activity_session_review",
  "connection": "",
  "displayedAttribute": "",
  "schema": true,
  "attributes": {
    "tuition_activity_session": {
      "model": "tuition_activity_session"
    },
    "user": {
      "model": "user"
    },
    "datetime": {
      "type": "datetime"
    },
    "num_star": {
      "type": "integer"
    },
    "comment": {
      "type": "string"
    },
    "createdBy": {
      "model": "user"
    },
    "updatedBy": {
      "model": "user"
    },
    "contributors": {
      "collection": "user",
      "via": "tuition_activity_session_reviews"
    }
  },
  "autoCreatedAt": true,
  "autoUpdatedAt": true
}
