{
  "identity": "tutor_working_experience",
  "connection": "",
  "displayedAttribute": "",
  "schema": true,
  "attributes": {
    "user": {
      "model": "user"
    },
    "year": {
      "type": "integer"
    },
    "experience": {
      "type": "string"
    },
    "note": {
      "type": "string"
    },
    "verified": {
      "type": "boolean"
    },
    "createdBy": {
      "model": "user"
    },
    "updatedBy": {
      "model": "user"
    },
    "contributors": {
      "collection": "user",
      "via": "tutor_working_experiences"
    }
  },
  "autoCreatedAt": true,
  "autoUpdatedAt": true
}
