{
  "identity": "nationality",
  "connection": "",
  "displayedAttribute": "",
  "schema": true,
  "attributes": {
    "nationality_name": {
      "type": "string"
    },
    "nationality_code": {
      "type": "string"
    },
    "note": {
      "type": "string"
    },
    "createdBy": {
      "model": "user"
    },
    "updatedBy": {
      "model": "user"
    },
    "contributors": {
      "collection": "user",
      "via": "countries"
    }
  },
  "autoCreatedAt": true,
  "autoUpdatedAt": true
}
