{
  "routes": {
    "GET /currency": {
      "controller": "Currency",
      "action": "find",
      "policies": [
        "isAuthorized"
      ]
    },
    "GET /currency/:id": {
      "controller": "Currency",
      "action": "findOne",
      "policies": [
        "isAuthorized"
      ]
    },
    "POST /currency": {
      "controller": "Currency",
      "action": "create",
      "policies": [
        "isAuthorized",
        "addDataCreate"
      ]
    },
    "PUT /currency/:id": {
      "controller": "Currency",
      "action": "update",
      "policies": [
        "isAuthorized",
        "addDataUpdate"
      ]
    },
    "DELETE /currency/:id": {
      "controller": "Currency",
      "action": "destroy",
      "policies": [
        "isAuthorized"
      ]
    },
    "POST /currency/:parentId/:relation": {
      "controller": "Currency",
      "action": "add",
      "policies": [
        "isAuthorized",
        "addDataCreate"
      ]
    },
    "DELETE /currency/:parentId/:relation/:id": {
      "controller": "Currency",
      "action": "remove",
      "policies": [
        "isAuthorized",
        "addDataUpdate"
      ]
    }
  }
}
