{
  "identity": "payment",
  "connection": "",
  "displayedAttribute": "",
  "schema": true,
  "attributes": {
    "tuition_activity": {
      "model": "tuition_activity"
    },
    "payment_type": {
      "model": "payment_type"
    },
    "payment_method": {
      "model": "payment_method"
    },
    "user": {
      "model": "user"
    },
    "datetime": {
      "type": "datetime"
    },
    "credit": {
      "type": "float"
    },
    "debit": {
      "type": "float"
    },
    "createdBy": {
      "model": "user"
    },
    "updatedBy": {
      "model": "user"
    },
    "contributors": {
      "collection": "user",
      "via": "payments"
    }
  },
  "autoCreatedAt": true,
  "autoUpdatedAt": true
}
