{
  "routes": {
    "GET /upload": {
      "controller": "Upload",
      "action": "find",
      "policies": [
        "isAuthorized"
      ]
    },
    "POST /upload": {
      "controller": "Upload",
      "action": "upload",
      "policies": [
        "addDataCreate",
        "authenticated"
      ]
    },
    "POST /uploadCustom": {
      "controller": "Upload",
      "action": "uploadCustom",
      "policies": [
        "addDataCreate",
        "authenticated"
      ]
    }
  }
}
