{
  "identity": "user_etuition",
  "connection": "",
  "displayedAttribute": "",
  "schema": true,
  "attributes": {
    "username": {
      "type": "string"
    },
    "email": {
      "type": "string"
    },
    "password_plin": {
      "type": "string"
    },
    "roles": {
      "type": "string"
    },
    "active_status": {
      "type": "string"
    },
    "first_name": {
      "type": "string"
    },
    "last_name": {
      "type": "string"
    },
    "phone_code": {
      "type": "string"
    },
    "phone_number": {
      "type": "string"
    },
    "profile_picture": {
      "type": "string"
    },
    "country": {
      "type": "string"
    },
    "city": {
      "type": "string"
    },
    "gender": {
      "type": "string"
    },
    "religion": {
      "type": "string"
    },
    "academic_level": {
      "type": "string"
    },
    "academic_grade": {
      "type": "string"
    },
    "language": {
      "type": "string"
    },
    "other_name": {
      "type": "string"
    },
    "birth_date": {
      "type": "string"
    },
    "passport": {
      "type": "string"
    },
    "address": {
      "type": "string"
    },
    "postal_code": {
      "type": "string"
    },
    "bank_name": {
      "type": "string"
    },
    "account_name": {
      "type": "string"
    },
    "account_number": {
      "type": "string"
    },
    "password": {
      "type": "string"
    },
     "tuition_fee": {
      "type": "string"
    },
     "lesson_taught": {
      "type": "string"
    },
     "rating": {
      "type": "string"
    },
    "createdBy": {
      "model": "user"
    },
    "updatedBy": {
      "model": "user"
    },
    "contributors": {
      "collection": "user",
      "via": "user_etuitions"
    }
  },
  "autoCreatedAt": true,
  "autoUpdatedAt": true
}
