{
  "identity": "gender",
  "connection": "",
  "displayedAttribute": "",
  "schema": true,
  "attributes": {
    "gender_name": {
      "type": "string"
    },
    "createdBy": {
      "model": "user"
    },
    "updatedBy": {
      "model": "user"
    },
    "contributors": {
      "collection": "user",
      "via": "genders"
    }
  },
  "autoCreatedAt": true,
  "autoUpdatedAt": true
}
