{
  "routes": {
    "GET /tuition_activity_status": {
      "controller": "Tuition_activity_status",
      "action": "find",
      "policies": [
        "isAuthorized"
      ]
    },
    "GET /tuition_activity_status/:id": {
      "controller": "Tuition_activity_status",
      "action": "findOne",
      "policies": [
        "isAuthorized"
      ]
    },
    "POST /tuition_activity_status": {
      "controller": "Tuition_activity_status",
      "action": "create",
      "policies": [
        "isAuthorized",
        "addDataCreate"
      ]
    },
    "PUT /tuition_activity_status/:id": {
      "controller": "Tuition_activity_status",
      "action": "update",
      "policies": [
        "isAuthorized",
        "addDataUpdate"
      ]
    },
    "DELETE /tuition_activity_status/:id": {
      "controller": "Tuition_activity_status",
      "action": "destroy",
      "policies": [
        "isAuthorized"
      ]
    },
    "POST /tuition_activity_status/:parentId/:relation": {
      "controller": "Tuition_activity_status",
      "action": "add",
      "policies": [
        "isAuthorized",
        "addDataCreate"
      ]
    },
    "DELETE /tuition_activity_status/:parentId/:relation/:id": {
      "controller": "Tuition_activity_status",
      "action": "remove",
      "policies": [
        "isAuthorized",
        "addDataUpdate"
      ]
    }
  }
}
