{
  "routes": {
    "GET /tutor_admin": {
      "controller": "Tutor_admin",
      "action": "find",
      "policies": [
        "isAuthorized"
      ]
    },
    "GET /tutor_admin/:id": {
      "controller": "Tutor_admin",
      "action": "findOne",
      "policies": [
        "isAuthorized"
      ]
    },
    "POST /tutor_admin": {
      "controller": "Tutor_admin",
      "action": "create",
      "policies": [
        "isAuthorized",
        "addDataCreate"
      ]
    },
    "PUT /tutor_admin/:id": {
      "controller": "Tutor_admin",
      "action": "update",
      "policies": [
        "isAuthorized",
        "addDataUpdate"
      ]
    },
    "DELETE /tutor_admin/:id": {
      "controller": "Tutor_admin",
      "action": "destroy",
      "policies": [
        "isAuthorized"
      ]
    },
    "POST /tutor_admin/:parentId/:relation": {
      "controller": "Tutor_admin",
      "action": "add",
      "policies": [
        "isAuthorized",
        "addDataCreate"
      ]
    },
    "DELETE /tutor_admin/:parentId/:relation/:id": {
      "controller": "Tutor_admin",
      "action": "remove",
      "policies": [
        "isAuthorized",
        "addDataUpdate"
      ]
    }
  }
}
