{
  "identity": "academic_setup",
  "connection": "",
  "displayedAttribute": "",
  "schema": true,
  "attributes": {
    "country": {
      "type": "string"
    },
    "academic_level": {
      "type": "string"
    },
    "grade": {
      "type": "string"
    },
    "subject": {
      "type": "string"
    },
    "no_session": {
      "type": "string"
    },
    "no_hours_per_session": {
      "type": "string"
    },
    "createdBy": {
      "model": "user"
    },
    "updatedBy": {
      "model": "user"
    },
    "contributors": {
      "collection": "user",
      "via": "academic_setups"
    }
  },
  "autoCreatedAt": true,
  "autoUpdatedAt": true
}
