{
  "routes": {
    "GET /religion": {
      "controller": "Religion",
      "action": "find",
      "policies": [
        "isAuthorized"
      ]
    },
    "GET /religion/:id": {
      "controller": "Religion",
      "action": "findOne",
      "policies": [
        "isAuthorized"
      ]
    },
    "POST /religion": {
      "controller": "Religion",
      "action": "create",
      "policies": [
        "isAuthorized",
        "addDataCreate"
      ]
    },
    "PUT /religion/:id": {
      "controller": "Religion",
      "action": "update",
      "policies": [
        "isAuthorized",
        "addDataUpdate"
      ]
    },
    "DELETE /religion/:id": {
      "controller": "Religion",
      "action": "destroy",
      "policies": [
        "isAuthorized"
      ]
    },
    "POST /religion/:parentId/:relation": {
      "controller": "Religion",
      "action": "add",
      "policies": [
        "isAuthorized",
        "addDataCreate"
      ]
    },
    "DELETE /religion/:parentId/:relation/:id": {
      "controller": "Religion",
      "action": "remove",
      "policies": [
        "isAuthorized",
        "addDataUpdate"
      ]
    }
  }
}
