{
  "routes": {
    "GET /exchange_rate": {
      "controller": "Exchange_rate",
      "action": "find",
      "policies": [
        "isAuthorized"
      ]
    },
    "GET /exchange_rate/:id": {
      "controller": "Exchange_rate",
      "action": "findOne",
      "policies": [
        "isAuthorized"
      ]
    },
    "POST /exchange_rate": {
      "controller": "Exchange_rate",
      "action": "create",
      "policies": [
        "isAuthorized",
        "addDataCreate"
      ]
    },
    "PUT /exchange_rate/:id": {
      "controller": "Exchange_rate",
      "action": "update",
      "policies": [
        "isAuthorized",
        "addDataUpdate"
      ]
    },
    "DELETE /exchange_rate/:id": {
      "controller": "Exchange_rate",
      "action": "destroy",
      "policies": [
        "isAuthorized"
      ]
    },
    "POST /exchange_rate/:parentId/:relation": {
      "controller": "Exchange_rate",
      "action": "add",
      "policies": [
        "isAuthorized",
        "addDataCreate"
      ]
    },
    "DELETE /exchange_rate/:parentId/:relation/:id": {
      "controller": "Exchange_rate",
      "action": "remove",
      "policies": [
        "isAuthorized",
        "addDataUpdate"
      ]
    }
  }
}
