{
  "identity": "academic_grade",
  "connection": "",
  "displayedAttribute": "",
  "schema": true,
  "attributes": {
    "academic_level": {
      "model": "academic_level"
    },
    "academic_grade_name": {
      "type": "string"
    },
    "code": {
      "type": "string"
    },
    "note": {
      "type": "string"
    },
    "createdBy": {
      "model": "user"
    },
    "updatedBy": {
      "model": "user"
    },
    "contributors": {
      "collection": "user",
      "via": "academic_grades"
    },
    "academic_setup_new": {
      "collection": "academic_setup_new",
      "via": "academic_grade"
    }
  },
  "autoCreatedAt": true,
  "autoUpdatedAt": true
}
