{
  "identity": "tutor_teaching_subject",
  "connection": "",
  "displayedAttribute": "",
  "schema": true,
  "attributes": {
    "user": {
      "model": "user"
    },
    "country": {
      "model": "country"
    },
    "academic_level": {
      "model": "academic_level"
    },
    "academic_grade": {
      "model": "academic_grade"
    },
    "course": {
      "model": "course"
    },
    "fee_configuration": {
      "model": "fee_configuration"
    },
    "fee_per_hour": {
      "type": "float"
    },
    "fee_commition": {
      "type": "float"
    },
    "fee_earn": {
      "type": "float"
    },
    "note": {
      "type": "string"
    },
    "createdBy": {
      "model": "user"
    },
    "updatedBy": {
      "model": "user"
    },
    "contributors": {
      "collection": "user",
      "via": "tutor_teaching_subjects"
    }
  },
  "autoCreatedAt": true,
  "autoUpdatedAt": true
}
