{
  "identity": "tutor_reference",
  "connection": "",
  "displayedAttribute": "",
  "schema": true,
  "attributes": {
    "user": {
      "model": "user"
    },
    "country": {
      "model": "country"
    },
    "language": {
      "model": "language"
    },
    "about_me": {
      "type": "string"
    },
    "profile_picture": {
      "type": "string"
    },
    "academic_level": {
      "model": "academic_level"
    },
    "major": {
      "type": "string"
    },
    "institute": {
      "type": "string"
    },
    "certificate": {
      "type": "array"
    },
    "createdBy": {
      "model": "user"
    },
    "updatedBy": {
      "model": "user"
    },
    "contributors": {
      "collection": "user",
      "via": "tutor_references"
    }
  },
  "autoCreatedAt": true,
  "autoUpdatedAt": true
}
