{
  "identity": "tutor",
  "connection": "",
  "displayedAttribute": "",
  "schema": true,
  "attributes": {
    "user": {
      "model": "user"
    },
    "tutor_reference": {
      "model": "tutor_reference"
    },
    "tutor_working_experience": {
      "model": "tutor_working_experience"
    },
    "tutor_teaching_subject": {
      "model": "tutor_teaching_subject"
    },
    "tutor_calendar": {
      "model": "tutor_calendar"
    },
    "datetime": {
      "type": "datetime"
    },
    "note": {
      "type": "string"
    },
    "createdBy": {
      "model": "user"
    },
    "updatedBy": {
      "model": "user"
    } 
  },
  "autoCreatedAt": true,
  "autoUpdatedAt": true
}
