{
  "identity": "fee_configuration",
  "connection": "",
  "displayedAttribute": "",
  "schema": true,
  "attributes": {
    "scenario": {
      "type": "string"
    },
    "commition_fee": {
      "type": "integer"
    },
    "note": {
      "type": "string"
    },
    "createdBy": {
      "model": "user"
    },
    "updatedBy": {
      "model": "user"
    },
    "contributors": {
      "collection": "user",
      "via": "fee_configurations"
    }
  },
  "autoCreatedAt": true,
  "autoUpdatedAt": true
}
