{ 
    "_id" : ObjectId("59e4e8617fffb7a43f560a94"), 
    "user_activity_statuses" : ObjectId("59db4dfe7da2fe9432c1f6e3"), 
    "activity_status_contributors" : ObjectId("59e4e8617fffb7a43f560a93")
}
{ 
    "_id" : ObjectId("59e4e86a7fffb7a43f560a96"), 
    "user_activity_statuses" : ObjectId("59db4dfe7da2fe9432c1f6e3"), 
    "activity_status_contributors" : ObjectId("59e4e86a7fffb7a43f560a95")
}
{ 
    "_id" : ObjectId("59e4e8787fffb7a43f560a98"), 
    "user_activity_statuses" : ObjectId("59db4dfe7da2fe9432c1f6e3"), 
    "activity_status_contributors" : ObjectId("59e4e8787fffb7a43f560a97")
}
{ 
    "_id" : ObjectId("59e4e8877fffb7a43f560a9a"), 
    "user_activity_statuses" : ObjectId("59db4dfe7da2fe9432c1f6e3"), 
    "activity_status_contributors" : ObjectId("59e4e8877fffb7a43f560a99")
}
{ 
    "_id" : ObjectId("59e4e8967fffb7a43f560a9c"), 
    "user_activity_statuses" : ObjectId("59db4dfe7da2fe9432c1f6e3"), 
    "activity_status_contributors" : ObjectId("59e4e8967fffb7a43f560a9b")
}
