{ 
    "_id" : ObjectId("59e4e8c37fffb7a43f560a9e"), 
    "user_countries" : ObjectId("59db4dfe7da2fe9432c1f6e3"), 
    "country_contributors" : ObjectId("59e4e8c37fffb7a43f560a9d")
}
{ 
    "_id" : ObjectId("59e4e8d67fffb7a43f560aa0"), 
    "user_countries" : ObjectId("59db4dfe7da2fe9432c1f6e3"), 
    "country_contributors" : ObjectId("59e4e8d67fffb7a43f560a9f")
}
{ 
    "_id" : ObjectId("59e4e8e17fffb7a43f560aa2"), 
    "user_countries" : ObjectId("59db4dfe7da2fe9432c1f6e3"), 
    "country_contributors" : ObjectId("59e4e8e17fffb7a43f560aa1")
}
