{ 
    "_id" : ObjectId("59e4ecb8fa07758c141f5511"), 
    "createdBy" : ObjectId("59db4dfe7da2fe9432c1f6e3"), 
    "createdAt" : ISODate("2017-10-16T17:29:56.215+0000"), 
    "course_name" : "English", 
    "updatedBy" : ObjectId("59db4dfe7da2fe9432c1f6e3"), 
    "updatedAt" : ISODate("2017-10-16T17:30:32.343+0000")
}
{ 
    "_id" : ObjectId("59e4ecc3fa07758c141f5513"), 
    "createdBy" : ObjectId("59db4dfe7da2fe9432c1f6e3"), 
    "createdAt" : ISODate("2017-10-16T17:30:33.338+0000"), 
    "course_name" : "Mathematics", 
    "updatedBy" : ObjectId("59db4dfe7da2fe9432c1f6e3"), 
    "updatedAt" : ISODate("2017-10-16T17:30:43.770+0000")
}
{ 
    "_id" : ObjectId("59e4eccafa07758c141f5515"), 
    "createdBy" : ObjectId("59db4dfe7da2fe9432c1f6e3"), 
    "createdAt" : ISODate("2017-10-16T17:30:44.751+0000"), 
    "course_name" : "Science", 
    "updatedBy" : ObjectId("59db4dfe7da2fe9432c1f6e3"), 
    "updatedAt" : ISODate("2017-10-16T17:30:50.129+0000")
}
{ 
    "_id" : ObjectId("59e4ecd0fa07758c141f5517"), 
    "createdBy" : ObjectId("59db4dfe7da2fe9432c1f6e3"), 
    "createdAt" : ISODate("2017-10-16T17:30:50.860+0000"), 
    "course_name" : "History & Social Sciences", 
    "updatedBy" : ObjectId("59db4dfe7da2fe9432c1f6e3"), 
    "updatedAt" : ISODate("2017-10-16T17:30:56.490+0000")
}
{ 
    "_id" : ObjectId("59e4ecd9fa07758c141f5519"), 
    "createdBy" : ObjectId("59db4dfe7da2fe9432c1f6e3"), 
    "createdAt" : ISODate("2017-10-16T17:31:03.571+0000"), 
    "course_name" : "Technology and Computer Science", 
    "updatedBy" : ObjectId("59db4dfe7da2fe9432c1f6e3"), 
    "updatedAt" : ISODate("2017-10-16T17:31:05.136+0000")
}
