{ 
    "_id" : ObjectId("59e4ed00fa07758c141f551b"), 
    "createdBy" : ObjectId("59db4dfe7da2fe9432c1f6e3"), 
    "createdAt" : ISODate("2017-10-16T17:31:11.404+0000"), 
    "currency_name" : "Singapore dollar", 
    "currency_symbol" : "SGD", 
    "updatedBy" : ObjectId("59db4dfe7da2fe9432c1f6e3"), 
    "updatedAt" : ISODate("2017-10-16T17:31:44.875+0000")
}
{ 
    "_id" : ObjectId("59e4ed28fa07758c141f551d"), 
    "createdBy" : ObjectId("59db4dfe7da2fe9432c1f6e3"), 
    "createdAt" : ISODate("2017-10-16T17:32:12.908+0000"), 
    "currency_name" : "Malaysian ringgit", 
    "currency_symbol" : "MYR", 
    "updatedBy" : ObjectId("59db4dfe7da2fe9432c1f6e3"), 
    "updatedAt" : ISODate("2017-10-16T17:32:24.119+0000")
}
{ 
    "_id" : ObjectId("59e4ed33fa07758c141f551f"), 
    "createdBy" : ObjectId("59db4dfe7da2fe9432c1f6e3"), 
    "createdAt" : ISODate("2017-10-16T17:32:31.707+0000"), 
    "currency_name" : "Indonesian rupiah", 
    "currency_symbol" : "IDR", 
    "updatedBy" : ObjectId("59db4dfe7da2fe9432c1f6e3"), 
    "updatedAt" : ISODate("2017-10-16T17:32:35.393+0000")
}
