{ 
    "_id" : ObjectId("59e4ed52fa07758c141f5521"), 
    "createdBy" : ObjectId("59db4dfe7da2fe9432c1f6e3"), 
    "createdAt" : ISODate("2017-10-16T17:32:42.230+0000"), 
    "scenario" : "First payment", 
    "commition_fee" : NumberInt(20), 
    "note" : "20% of first payment", 
    "updatedBy" : ObjectId("59db4dfe7da2fe9432c1f6e3"), 
    "updatedAt" : ISODate("2017-10-16T17:33:06.919+0000")
}
{ 
    "_id" : ObjectId("59e4ed68fa07758c141f5523"), 
    "createdBy" : ObjectId("59db4dfe7da2fe9432c1f6e3"), 
    "createdAt" : ISODate("2017-10-16T17:33:08.542+0000"), 
    "scenario" : "next payment", 
    "commition_fee" : NumberInt(15), 
    "note" : "15% on next payment", 
    "updatedBy" : ObjectId("59db4dfe7da2fe9432c1f6e3"), 
    "updatedAt" : ISODate("2017-10-16T17:33:28.454+0000")
}
