{ 
    "_id" : ObjectId("59e4edc4fa07758c141f5525"), 
    "createdBy" : ObjectId("59db4dfe7da2fe9432c1f6e3"), 
    "createdAt" : ISODate("2017-10-16T17:34:18.300+0000"), 
    "gender_name" : "Male", 
    "updatedBy" : ObjectId("59db4dfe7da2fe9432c1f6e3"), 
    "updatedAt" : ISODate("2017-10-16T17:35:00.980+0000")
}
{ 
    "_id" : ObjectId("59e4edcafa07758c141f5527"), 
    "createdBy" : ObjectId("59db4dfe7da2fe9432c1f6e3"), 
    "createdAt" : ISODate("2017-10-16T17:35:01.997+0000"), 
    "gender_name" : "Female", 
    "updatedBy" : ObjectId("59db4dfe7da2fe9432c1f6e3"), 
    "updatedAt" : ISODate("2017-10-16T17:35:06.881+0000")
}
