{ 
    "_id" : ObjectId("59e4ee71fa07758c141f5531"), 
    "createdBy" : ObjectId("59db4dfe7da2fe9432c1f6e3"), 
    "createdAt" : ISODate("2017-10-16T17:37:48.790+0000"), 
    "payment_method_name" : "Credit Card", 
    "updatedBy" : ObjectId("59db4dfe7da2fe9432c1f6e3"), 
    "updatedAt" : ISODate("2017-10-16T17:37:53.827+0000")
}
{ 
    "_id" : ObjectId("59e4ee8cfa07758c141f5533"), 
    "createdBy" : ObjectId("59db4dfe7da2fe9432c1f6e3"), 
    "createdAt" : ISODate("2017-10-16T17:37:54.927+0000"), 
    "payment_method_name" : "PayPal", 
    "updatedBy" : ObjectId("59db4dfe7da2fe9432c1f6e3"), 
    "updatedAt" : ISODate("2017-10-16T17:38:20.881+0000")
}
