{ 
    "_id" : ObjectId("59e4ef05fa07758c141f5539"), 
    "createdBy" : ObjectId("59db4dfe7da2fe9432c1f6e3"), 
    "createdAt" : ISODate("2017-10-16T17:39:54.941+0000"), 
    "race_name" : "Arabs", 
    "updatedBy" : ObjectId("59db4dfe7da2fe9432c1f6e3"), 
    "updatedAt" : ISODate("2017-10-16T17:40:21.382+0000")
}
{ 
    "_id" : ObjectId("59e4ef1ffa07758c141f553b"), 
    "createdBy" : ObjectId("59db4dfe7da2fe9432c1f6e3"), 
    "createdAt" : ISODate("2017-10-16T17:40:22.109+0000"), 
    "race_name" : "English", 
    "updatedBy" : ObjectId("59db4dfe7da2fe9432c1f6e3"), 
    "updatedAt" : ISODate("2017-10-16T17:40:47.891+0000")
}
{ 
    "_id" : ObjectId("59e4ef40fa07758c141f553d"), 
    "createdBy" : ObjectId("59db4dfe7da2fe9432c1f6e3"), 
    "createdAt" : ISODate("2017-10-16T17:41:15.656+0000"), 
    "race_name" : "Chinese", 
    "updatedBy" : ObjectId("59db4dfe7da2fe9432c1f6e3"), 
    "updatedAt" : ISODate("2017-10-16T17:41:20.148+0000")
}
{ 
    "_id" : ObjectId("59e4ef42fa07758c141f553f"), 
    "createdBy" : ObjectId("59db4dfe7da2fe9432c1f6e3"), 
    "createdAt" : ISODate("2017-10-16T17:41:21.015+0000"), 
    "race_name" : "Malays", 
    "updatedBy" : ObjectId("59db4dfe7da2fe9432c1f6e3"), 
    "updatedAt" : ISODate("2017-10-16T17:41:22.429+0000")
}
{ 
    "_id" : ObjectId("59e4ef52fa07758c141f5541"), 
    "createdBy" : ObjectId("59db4dfe7da2fe9432c1f6e3"), 
    "createdAt" : ISODate("2017-10-16T17:41:35.575+0000"), 
    "race_name" : "India", 
    "updatedBy" : ObjectId("59db4dfe7da2fe9432c1f6e3"), 
    "updatedAt" : ISODate("2017-10-16T17:41:38.139+0000")
}
