{ 
    "_id" : ObjectId("59e4ef05fa07758c141f553a"), 
    "user_races" : ObjectId("59db4dfe7da2fe9432c1f6e3"), 
    "race_contributors" : ObjectId("59e4ef05fa07758c141f5539")
}
{ 
    "_id" : ObjectId("59e4ef1ffa07758c141f553c"), 
    "user_races" : ObjectId("59db4dfe7da2fe9432c1f6e3"), 
    "race_contributors" : ObjectId("59e4ef1ffa07758c141f553b")
}
{ 
    "_id" : ObjectId("59e4ef40fa07758c141f553e"), 
    "user_races" : ObjectId("59db4dfe7da2fe9432c1f6e3"), 
    "race_contributors" : ObjectId("59e4ef40fa07758c141f553d")
}
{ 
    "_id" : ObjectId("59e4ef42fa07758c141f5540"), 
    "user_races" : ObjectId("59db4dfe7da2fe9432c1f6e3"), 
    "race_contributors" : ObjectId("59e4ef42fa07758c141f553f")
}
{ 
    "_id" : ObjectId("59e4ef52fa07758c141f5542"), 
    "user_races" : ObjectId("59db4dfe7da2fe9432c1f6e3"), 
    "race_contributors" : ObjectId("59e4ef52fa07758c141f5541")
}
