{ 
    "_id" : ObjectId("59db4dfe7da2fe9432c1f6e3"), 
    "username" : "admin", 
    "email" : "akatgelar@gmail.com", 
    "password" : "$2a$10$clTfla/EaM297ZvIzLhmse8C1vLZXH92cANVZfF9QlN2McrZHZlkK", 
    "id_ref" : "1", 
    "lang" : "en_US", 
    "template" : "default", 
    "provider" : "local", 
    "createdAt" : ISODate("2017-10-09T10:22:54.998+0000"), 
    "updatedAt" : ISODate("2017-10-09T10:22:55.009+0000")
}
{ 
    "_id" : ObjectId("59e4f2fbfa07758c141f5550"), 
    "username" : "akatgelar", 
    "email" : "akatgelar@yahoo.co.id", 
    "lang" : "en_US", 
    "template" : "default", 
    "id_ref" : "", 
    "provider" : "", 
    "password" : "$2a$10$JuUvoE.iV8bFGGpLb7IU4...eT8QEGGg91T1wCnHp9gPHiO2sNfPG", 
    "password_plain" : "password", 
    "active_status" : false, 
    "first_name" : "Gelar", 
    "last_name" : "Pratama", 
    "phone_code" : "+62", 
    "phone_number" : NumberInt(857), 
    "profile_picture" : "https://www.google.co.id/images/branding/googlelogo/2x/googlelogo_color_120x44dp.png", 
    "country" : ObjectId("59e4e8e17fffb7a43f560aa1"), 
    "city" : ObjectId("59e4ec03f1227df03a3a5e1d"), 
    "gender" : ObjectId("59e4edc4fa07758c141f5525"), 
    "religion" : ObjectId("59e4efbffa07758c141f5547"), 
    "academic_level" : ObjectId("59e4e6a47fffb7a43f560a6f"), 
    "language" : ObjectId("59e4ee57fa07758c141f552f"), 
    "other_name" : "Aditya", 
    "birth_date" : ISODate("1993-07-27T00:00:00.000+0000"), 
    "passport" : "12345", 
    "address" : "bandung", 
    "postal_code" : "40123", 
    "payment_method" : ObjectId("59e4ee71fa07758c141f5531"), 
    "bank_name" : "Mandiri", 
    "account_name" : "Gelar Aditya Pratama", 
    "account_number" : "1234", 
    "createdAt" : ISODate("2017-10-16T17:57:15.367+0000"), 
    "updatedAt" : ISODate("2017-10-16T17:57:15.367+0000")
}
